CEE218X Assignment 1
…
From the gas usage chart above, it is clear that the residential sector uses much more gas than the commercial sector. As opposed to the electricity use chart, here it seems like residential gas use is much greater than commercial gas use.

Overall chart:

## # A tibble: 76,079 x 10
## # Groups:   ZIPCODE, YEAR, MONTH [40,053]
##    ZIPCODE  YEAR MONTH CUSTOMERCLASS TOTALKWH TOTALCUSTOMERS AVERAGEKWH TOTALBTU
##      <dbl> <dbl> <dbl> <chr>            <dbl>          <dbl>      <dbl>    <dbl>
##  1   92356  2019    25 Elec- Reside        0              0        NaN        0
##  2   92356  2019    26 Elec- Reside        0              0        NaN        0
##  3   92356  2019    27 Elec- Reside        0              0        NaN        0
##  4   92356  2019    28 Elec- Reside        0              0        NaN        0
##  5   92356  2019    29 Elec- Reside        0              0        NaN        0
##  6   92356  2019    30 Elec- Reside        0              0        NaN        0
##  7   92356  2019    31 Elec- Reside        0              0        NaN        0
##  8   92356  2019    32 Elec- Reside        0              0        NaN        0
##  9   92356  2019    33 Elec- Reside        0              0        NaN        0
## 10   92356  2019    34 Elec- Reside        0              0        NaN        0
## #  with 76,069 more rows, and 2 more variables: TOTALTHM <dbl>,
## #   AVERAGETHM <dbl>
…
